…
# Keep only Utica (U...) and Point Pleasant (P...) intervals

Data_filtered2 <- Data_filtered %>%
  filter(str_starts(Formation, "U") | str_starts(Formation, "P"))
Data_filtered2
```

    ## # A tibble: 631 × 26
    ##    Depth `Al_wt%` `Si_wt%` `K_wt%` `Ti_wt%` `Fe_wt%` `S_wt%` `Mg_wt%` `Ca_wt%`
    ##    <dbl>    <dbl>    <dbl>   <dbl>    <dbl>    <dbl>   <dbl>    <dbl>    <dbl>
    ##  1 6141      4.9      16.7    2.22    0.001     4.97    1.78     0.3      1.99
    ##  2 6142.     7.98     28.2    2.83    0.001     5.32    2.39     1.3      0.95
    ##  3 6142      7.4      28.8    2.69    0.57      5.02    2.65     1.12     2.26
    ##  4 6143.     8.3      29.3    2.7     0.57      5.58    3.03     1.72     1.29
    ##  5 6143      5.15     26.2    1.7     0.001     4.71    1.89     0.9      2.31
    ##  6 6144.     7.49     28.6    2.69    0.001     5.08    2.21     1.38     1.31
    ##  7 6144      7.02     24.3    2.39    0.49      4.17    1.82     1.2      8.4 
    ##  8 6145.     7.53     27.3    2.68    0.001     4.87    2.46     1.24     1.16
    ##  9 6145      5.28     18.1    2.3     0.001     4.66    1.97     0.3      2.16
    ## 10 6146.     8.24     28.2    2.99    0.64      5.05    2.29     1.19     1.74
    ## # ℹ 621 more rows
    ## # ℹ 17 more variables: `Sr_wt%` <dbl>, `P_wt%` <dbl>, Mo_ppm <dbl>,
    ## #   V_ppm <dbl>, U_ppm <dbl>, Ni_ppm <dbl>, Cu_ppm <dbl>, Zn_ppm <dbl>,
    ## #   Th_ppm <dbl>, Rb_ppm <dbl>, Zr_ppm <dbl>, Pb_ppm <dbl>, Formation <chr>,
    ## #   chemofacies <dbl>, Factor1 <dbl>, Factor2 <dbl>, Factor3 <dbl>
…
